﻿Classifier;time to build te model [sec];FPR average;TPR average;TP number of instances;TN  number of instances;FP  number of instances;FN  number of instances
Bagging;4.12;0.615;0.687;10828;858;4132;1200
Stacking;0.11;0.707;0.707;12028;0;4990;0
AdaBoostM1;1.28;0.707;0.707;12028;0;4990;0
LogitBoost;1.03;0.625;0.712;11431;680;4310;597
SGD;10.19;0.693;0.706;11900;117;4873;128
NaiveBayesSimple;0.1;0.448;0.679;9257;2303;2687;2771
NaiveBayesUpdateable;0.07;0.464;0.683;9471;2157;2833;2557
Logistic;9.19;0.601;0.715;11289;871;4119;739
J48 -C 0.25 -M 100;0.51;0.683;0.706;11805;207;4783;223
J48 -C 0.25 -M 150;0.45;0.663;0.709;11704;368;4622;324
J48 -C 0.25 -M 200;0.34;0.658;0.710;11671;405;4585;357
IBk -K 5 -W 0 -A;0.01;0.563;0.673;10112;1347;3643;1916
IBk -K 100 -W 0 -A;0.01;0.661;0.710;11701;382;4608;327
RandomTree -K 0 -M 1.0 -V 0.001 -S 1;0.53;0.549;0.623;9043;1625;3365;2985
Randomtree -K 0 -M 100.0 -V 0.001 -S 1;0.09;0.661;0.699;11469;419;4571;559
